sequential_circuits/d_flip_flop/d_flip_flop_with_reset_bh.vcd
$date
	Fri Dec 22 00:47:13 2023
$end
$version
	Icarus Verilog
$end
$timescale
	1ps
$end
$scope module dffwrbhtb $end
$scope module dffwrb1 $end
$var wire 1 ! clk $end
$var wire 1 " d $end
$var wire 1 # rst $end
$var reg 1 $ q $end
$upscope $end
$upscope $end
$enddefinitions $end
$comment Show the parameter values. $end
$dumpall
$end
#0
$dumpvars
x$
0#
0"
0!
$end
#10
0$
1!
#20
0!
#30
1$
1!
1"
#40
0!
#50
1!
#60
0!
0"
#70
0$
1!
#80
0!
#90
1$
1!
1"
#100
0!
#110
1!
#120
0$
0!
1#
#130
1!
#140
0!
#150
1!
0"
#160
0!
#170
1!
#180
0!
1"
#190
1!
#200
0!
#210
1$
1!
0#
#220
0!
#230
1!
#240
0!
0"
#250
0$
1!
